Tidy Tuesday - Tweets
…
tidy_text <- all_tweets %>%
  filter(is_retweet == "FALSE") %>%
  unnest_tokens(word, text, token = "tweets") 

tidy_text_top_favorited <- tidy_text %>%
  filter(screen_name %in% top_favorited$screen_name) 

tf_idf <- tidy_text_top_favorited %>%
  count(screen_name, word, sort = TRUE) %>%
  bind_tf_idf(word, screen_name, n) %>%
  arrange(desc(tf_idf))

tf_idf

## # A tibble: 102,134 x 6
##    screen_name word                n     tf   idf tf_idf
##    <chr>       <chr>           <int>  <dbl> <dbl>  <dbl>
##  1 KirkDBorne  #abdsc           1134 0.0337 2.30  0.0777
##  2 gp_pulipaka #serverless      2242 0.0278 2.30  0.0640
##  3 gp_pulipaka #vuejs           2239 0.0278 2.30  0.0640
##  4 gp_pulipaka #cloudcomputing  2216 0.0275 2.30  0.0633
##  5 gp_pulipaka #reactjs         2258 0.0280 1.61  0.0451
##  6 gp_pulipaka #golang          2235 0.0277 1.61  0.0446
##  7 gp_pulipaka #ai              2523 0.0313 1.20  0.0377
##  8 gp_pulipaka #tensorflow      2221 0.0276 1.20  0.0332
##  9 KirkDBorne  #datascience     1857 0.0553 0.511 0.0282
## 10 gp_pulipaka #iot             1323 0.0164 1.61  0.0264
## # ... with 102,124 more rows
…
